Ted Laderas, PhD - Tidy Tuesday: Crop Production
…
Warning in summary.lm(x): essentially perfect fit: summary may be unreliable

Warning in summary.lm(x): essentially perfect fit: summary may be unreliable

`summarise()` has grouped output by 'Entity', 'crop'. You can override using the
`.groups` argument.

model_results

# A tibble: 1,691 × 8
# Groups:   Entity, crop [1,691]
   Entity      crop       num_points term  estimate std.error statistic  p.value
   <chr>       <chr>           <int> <chr>    <dbl>     <dbl>     <dbl>    <dbl>
 1 Afghanistan "Potatoes…         58 Year   0.102    0.0197        5.15 3.45e- 6
 2 Afghanistan "Rice "            58 Year   0.0238   0.00253       9.40 4.10e-13
 3 Afghanistan "Wheat "           58 Year   0.0169   0.00199       8.52 1.10e-11
 4 Afghanistan "Maize "           58 Year   0.00987  0.00272       3.63 6.23e- 4
 5 Afghanistan "Barley "          58 Year   0.00711  0.00198       3.60 6.73e- 4
 6 Africa      "Potatoes…         58 Year   0.121    0.00630      19.1  3.20e-26
 7 Africa      "Cassava "         58 Year   0.0742   0.00305      24.4  1.79e-31
 8 Africa      "Bananas "         58 Year   0.0724   0.00653      11.1  9.80e-16
 9 Africa      "Wheat "           58 Year   0.0369   0.00123      30.0  3.39e-36
10 Africa      "Soybeans…         58 Year   0.0172   0.000931     18.4  1.89e-25
# … with 1,681 more rows
…
We can rank the top producers by crop:

ranked_by_slope <- model_results %>%
  ungroup() %>%
  group_by(crop) %>%
  summarize(Entity, crop, num_points, estimate=signif(estimate, digits = 3), rank = row_number(desc(estimate))) %>%
  arrange(crop, rank)

`summarise()` has grouped output by 'crop'. You can override using the `.groups`
argument.

ranked_by_slope

# A tibble: 1,691 × 5
# Groups:   crop [11]
   crop       Entity          num_points estimate  rank
   <chr>      <chr>                <int>    <dbl> <int>
 1 "Bananas " South Korea              6    6.56      1
 2 "Bananas " Indonesia               58    1.27      2
 3 "Bananas " Peru                    14    1.25      3
 4 "Bananas " Syria                   49    1.01      4
 5 "Bananas " South Africa            58    0.947     5
 6 "Bananas " Turkey                  58    0.839     6
 7 "Bananas " Southern Africa         58    0.835     7
 8 "Bananas " Cote d'Ivoire           58    0.749     8
 9 "Bananas " Guatemala               58    0.723     9
10 "Bananas " Morocco                 40    0.654    10
# … with 1,681 more rows
…
