Ted Laderas, PhD - Sentiment analysis of Avatar
…
episode_count %>% 
  DT::datatable()

Bit Players

episode_count %>%
  filter(n == 1) %>%
  arrange(character)

# A tibble: 272 × 2
   character         n
   <chr>         <int>
 1 Aang and Zuko     1
 2 Aang:             1
 3 Actor Bumi        1
 4 Actor Iroh        1
 5 Actor Jet         1
 6 Actor Ozai        1
 7 Actor Sokka       1
 8 Actor Toph        1
 9 Actor Zuko        1
10 Actress Azula     1
# … with 262 more rows
…
