Ted Laderas, PhD - Registered Nurses in the United States and Territories
…
Looking at how years are divided.

nurses %>%
  count(year)

# A tibble: 23 × 2
    year     n
   <dbl> <int>
 1  1998    54
 2  1999    54
 3  2000    54
 4  2001    54
 5  2002    54
 6  2003    54
 7  2004    54
 8  2005    54
 9  2006    54
10  2007    54
# … with 13 more rows

Hmmm. 54 entries per year. This includes: D.C., Virgin Islands, Puerto Rico, and Guam in addition to the 50 states.

nurses %>%
  count(state)

# A tibble: 54 × 2
   state                    n
   <chr>                <int>
 1 Alabama                 23
 2 Alaska                  23
 3 Arizona                 23
 4 Arkansas                23
 5 California              23
 6 Colorado                23
 7 Connecticut             23
 8 Delaware                23
 9 District of Columbia    23
10 Florida                 23
# … with 44 more rows
…
